{
    "anyoneCanAddSelf": null,
    "attendeesOmitted": null,
    "colorId": null,
    "created": "2019-04-17T09:51:48.000Z",
    "description": null,
    "endTimeUnspecified": null,
    "etag": "\"3110989417816000\"",
    "guestsCanInviteOthers": null,
    "guestsCanModify": null,
    "guestsCanSeeOtherGuests": null,
    "hangoutLink": null,
    "htmlLink": "https:\/\/www.google.com\/calendar\/event?eid=NnBkM3R0MTlndTQ1N2o4dmEzbzJnbnZjcmggc2hhcmlmLnNwcnlveEBt",
    "iCalUID": "6pd3tt19gu457j8va3o2gnvcrh@google.com",
    "id": "6pd3tt19gu457j8va3o2gnvcrh",
    "kind": "calendar#event",
    "location": null,
    "locked": null,
    "privateCopy": null,
    "recurrence": null,
    "recurringEventId": null,
    "sequence": 0,
    "status": "confirmed",
    "summary": "New Event",
    "transparency": null,
    "updated": "2019-04-17T09:51:48.908Z",
    "visibility": null,
    "creator": {
        "displayName": null,
        "email": "sharif.spryox@gmail.com",
        "id": null,
        "self": true
    },
    "organizer": {
        "displayName": null,
        "email": "sharif.spryox@gmail.com",
        "id": null,
        "self": true
    },
    "start": {
        "date": null,
        "dateTime": "2019-04-18T10:00:00+05:30",
        "timeZone": null
    },
    "end": {
        "date": null,
        "dateTime": "2019-04-18T11:00:00+05:30",
        "timeZone": null
    },
    "extendedProperties": {
        "private": {
            "everyoneDeclinedDismissed": "-1"
        },
        "shared": null
    },
    "reminders": {
        "useDefault": true
    }
}