<?xml version="1.0" encoding="utf-8"?>
<!-- Generator: Adobe Illustrator 23.0.3, SVG Export Plug-In . SVG Version: 6.00 Build 0)  -->
<svg version="1.1" id="Layer_1" xmlns="http://www.w3.org/2000/svg" xmlns:xlink="http://www.w3.org/1999/xlink" x="0px" y="0px"
	 viewBox="0 0 300 300" style="enable-background:new 0 0 300 300;" xml:space="preserve">
<style type="text/css">
	.st0{opacity:0.7;fill:#6466AE;enable-background:new    ;}
	.st1{fill:#E0E0E0;}
	.st2{opacity:0.7;fill:#56BF98;enable-background:new    ;}
	.st3{fill:#5C83C3;}
	.st4{fill:#FDD837;}
	.st5{fill:#F15F46;}
	.st6{opacity:0.5;fill:#6EC5A4;enable-background:new    ;}
	.st7{opacity:0.3;fill:#403D56;enable-background:new    ;}
	.st8{fill:#F2F2F3;}
	.st9{fill:#2F2E41;}
	.st10{fill:#F9B7B9;}
	.st11{opacity:0.1;enable-background:new    ;}
	.st12{fill:#D1CDE1;}
	.st13{fill:#A0616A;}
	.st14{fill:#FFFFFF;}
	.st15{fill:#585B8A;}
	.st16{fill:#6466AE;}
	.st17{fill:#56B893;}
</style>
<g id="Group_52" transform="translate(-10396 -3797)">
	<g id="Group_51" transform="translate(48 -1103)">
		<rect id="Rectangle_203" x="10466" y="4994.6" class="st0" width="35.9" height="1.1"/>
		<rect id="Rectangle_204" x="10507.2" y="4989.5" class="st1" width="35.9" height="1.1"/>
		
			<rect id="Rectangle_219" x="10543" y="4955.3" transform="matrix(0.1949 -0.9808 0.9808 0.1949 3591.9502 14360.7383)" class="st1" width="1.1" height="74.1"/>
		
			<rect id="Rectangle_223" x="10523.6" y="4976.6" transform="matrix(0.1949 -0.9808 0.9808 0.1949 3573.6267 14343.8721)" class="st0" width="1.1" height="37"/>
		
			<rect id="Rectangle_224" x="10536.9" y="4970.9" transform="matrix(0.1949 -0.9808 0.9808 0.1949 3575.3118 14364.3809)" class="st1" width="1.1" height="66.8"/>
		
			<rect id="Rectangle_225" x="10510.9" y="4997.6" transform="matrix(0.1949 -0.9808 0.9808 0.1949 3552.969 14339.9824)" class="st2" width="1.1" height="16.3"/>
		<path id="Path_412" class="st3" d="M10556.8,4952.3c-0.5-0.2-0.7-0.8-0.6-1.3c0,0,0-0.1,0-0.1l0,0c0-0.3-0.2-0.5-0.5-0.5
			c-0.2,0-0.3,0.1-0.5,0.2l0,0c0,0,0,0.1-0.1,0.1c-0.2,0.5-0.8,0.7-1.3,0.6c0,0-0.1,0-0.1,0l0,0c-0.3,0-0.5,0.2-0.5,0.5
			c0,0.2,0.1,0.4,0.2,0.5l0,0c0,0,0.1,0,0.1,0.1c0.5,0.2,0.7,0.8,0.6,1.3c0,0,0,0.1,0,0.1l0,0c0,0.3,0.2,0.5,0.5,0.6
			c0.2,0,0.4-0.1,0.5-0.2l0,0c0,0,0-0.1,0.1-0.1c0.2-0.5,0.8-0.7,1.3-0.6c0,0,0.1,0,0.1,0l0,0c0.3,0,0.5-0.2,0.5-0.5
			C10557.1,4952.6,10557.1,4952.5,10556.8,4952.3L10556.8,4952.3C10556.9,4952.3,10556.9,4952.3,10556.8,4952.3z"/>
		<path id="Path_413" class="st4" d="M10452.4,4987.6c-0.5-0.2-0.7-0.8-0.6-1.3c0,0,0-0.1,0-0.1l0,0c0-0.3-0.2-0.5-0.5-0.5
			c-0.2,0-0.3,0.1-0.5,0.2l0,0c0,0,0,0.1-0.1,0.1c-0.2,0.5-0.8,0.7-1.3,0.6c0,0-0.1,0-0.1,0l0,0c-0.3,0-0.5,0.2-0.5,0.5
			c0,0.2,0.1,0.3,0.2,0.5l0,0c0,0,0.1,0,0.1,0.1c0.5,0.2,0.7,0.8,0.6,1.3c0,0,0,0.1,0,0.1l0,0c0,0.3,0.2,0.5,0.5,0.5
			c0.2,0,0.3-0.1,0.5-0.2l0,0c0,0,0-0.1,0.1-0.1c0.2-0.5,0.8-0.7,1.3-0.6c0,0,0.1,0,0.1,0l0,0c0.3,0,0.5-0.2,0.5-0.5
			C10452.7,4988,10452.6,4987.8,10452.4,4987.6L10452.4,4987.6C10452.5,4987.7,10452.4,4987.7,10452.4,4987.6z"/>
		<circle id="Ellipse_112" class="st5" cx="10496.6" cy="4968.5" r="1.7"/>
		<circle id="Ellipse_113" class="st5" cx="10617.3" cy="4989.5" r="1.7"/>
		<circle id="Ellipse_114" class="st3" cx="10607.7" cy="5039.8" r="1.7"/>
		<circle id="Ellipse_115" class="st6" cx="10421" cy="4957.2" r="1.7"/>
	</g>
	<g id="undraw_hire_te5y" transform="translate(10396 4052)">
		<rect id="Rectangle_236" x="146.7" y="-143.4" class="st7" width="101.5" height="68.7"/>
		<rect id="Rectangle_237" x="211.7" y="-137.1" class="st8" width="30.1" height="32.8"/>
		<rect id="Rectangle_238" x="164.2" y="-137.1" class="st8" width="29" height="2"/>
		<rect id="Rectangle_239" x="211.7" y="-99.3" class="st8" width="10.3" height="2"/>
		<rect id="Rectangle_240" x="212" y="-95.7" class="st8" width="29.3" height="2"/>
		<rect id="Rectangle_241" x="158.2" y="-129.9" class="st8" width="41.8" height="2"/>
		<rect id="Rectangle_242" x="158.2" y="-124.3" class="st8" width="41.8" height="2"/>
		<rect id="Rectangle_243" x="158.2" y="-118.7" class="st8" width="41.8" height="2"/>
		<rect id="Rectangle_244" x="158.2" y="-113.1" class="st8" width="41.8" height="2"/>
		<rect id="Rectangle_245" x="158.2" y="-107.5" class="st8" width="41.8" height="2"/>
		<rect id="Rectangle_246" x="158.2" y="-102" class="st8" width="41.8" height="2"/>
		<rect id="Rectangle_247" x="158.2" y="-96.4" class="st8" width="41.8" height="2"/>
		<path id="Path_415" class="st9" d="M216.2-118.3c0.4-0.3,0.9-0.6,1.5-0.7c3.3-1.2,6.8-2,10.3-2.2c3.1-0.2,6.4,0,8.7,2
			c0.4,0.3,0.7,0.6,0.9,1c0.3,0.7,0.2,1.4,0.1,2.1c0,0.3-0.1,0.5-0.2,0.8c-0.3,0.6-1.1,0.8-1.8,0.8c-0.7-0.1-1.3-0.4-2-0.5
			c-0.4-0.1-0.8-0.1-1.3-0.1l-4.2-0.2c-2.6-0.1-5.3-0.3-7.9,0.3c-0.8,0.1-1.6,0.4-2.3,0.8c-0.6,0.3-1,0.8-1.5,0.2
			C215.4-115.4,214.9-117.4,216.2-118.3z"/>
		<path id="Path_416" class="st8" d="M222.8-116.5c0,0,5.7-2.6,7.9,0.4s-1.2,1.8-1.2,1.8l-3.7,1.2l-4.1-0.8L222.8-116.5z"/>
		<path id="Path_417" class="st10" d="M223-118.3c0,0,0.8,3.7,0.2,4.7s3.3,2.4,3.3,2.4l3.7-1.6c0,0-1-6.1,0-7.3L223-118.3z"/>
		<path id="Path_418" class="st11" d="M223-118.3c0,0,0.8,3.7,0.2,4.7s3.3,2.4,3.3,2.4l3.7-1.6c0,0-1-6.1,0-7.3L223-118.3z"/>
		<path id="Path_419" class="st10" d="M232.1-122.1c0,3.3-2.6,5.9-5.9,5.9c-0.4,0-0.7,0-1.1-0.1c-3.2-0.6-5.3-3.7-4.8-6.8
			c0.6-3.2,3.6-5.3,6.9-4.8C230-127.4,232.1-124.9,232.1-122.1L232.1-122.1z"/>
		<path id="Path_420" class="st8" d="M235.6-104.1h-18.8l0.4-1.8l1.9-8.1l2.1-1.4l0,0l1-0.7l0.5-0.3c0,0,0.3,0.1,0.6,0.3
			c0.1,0.1,0.2,0.1,0.3,0.2l0,0c0.2,0.1,0.3,0.2,0.5,0.3c0,0,0.1,0.1,0.1,0.1c0.4,0.4,1.5,2.4,3.3,1.3c0.1-0.1,0.2-0.1,0.3-0.2
			c0.5-0.3,0.9-0.7,1.3-1.1c0.4-0.3,0.6-0.6,0.8-0.8c0.1-0.1,0.2-0.2,0.3-0.2c0.1,0,0.2-0.1,0.3-0.1c0.6,0,1.4,1.2,1.4,1.2l0,0.1v0
			l2.5,7.4L235.6-104.1z"/>
		<path id="Path_421" class="st9" d="M216.8-104.1h5.7c0-0.7,0-1.3-0.1-2c-0.2-1.3-0.6-2.6-0.9-3.9c-0.2-1.1-0.4-2.3-0.3-3.5
			c0-0.2,0-0.3,0-0.5c0-0.4,0.1-0.7,0.3-1.1c0.1-0.2,0.3-0.4,0.5-0.6c0.1-0.1,0.1-0.1,0.1-0.2l0,0c0,0,0-0.1,0.1-0.1
			c0-0.1,0.1-0.2,0.1-0.3c0-0.6-0.5-1.2-1.1-1.4c-0.8-0.3-1.7-0.3-2.6-0.1c-0.8,0.2-1.6,0.6-2.4,1c-0.3,0.1-0.5,0.3-0.8,0.4
			c-0.3,0.2-0.6,0.4-0.8,0.6c-0.6,0.6-0.9,1.5-1.1,2.4c-0.2,0.7-0.3,1.3-0.2,2c0,0,0,0,0,0.1c0.2,1.1,1.1,2,1.6,3
			c0.6,1.2,0.5,2.6,0.3,3.9c0,0.1,0,0.1,0,0.2L216.8-104.1L216.8-104.1z"/>
		<path id="Path_422" class="st9" d="M240-111.3c-0.7,2.3-1.2,4.8-1.6,7.2h-8.1c-0.2-0.6-0.4-1.2-0.6-1.7c-0.2-0.4-0.3-0.9-0.4-1.3
			c-0.1-0.5-0.2-1.1-0.2-1.6c0-0.1,0-0.3,0-0.4v0c0.1-0.7,0.2-1.4,0.5-2c0.1-0.3,0.3-0.6,0.4-0.8c0.4-0.7,0.8-1.3,1.2-2
			c0.3-0.4,0.5-0.8,0.7-1.3c0,0,0,0,0,0c0.2-0.6,0.4-1.2,0.4-1.8c0-0.8-1.4-2.2,0.1-2c2,0.2,3.7,1.3,5.3,2.6
			c0.4,0.3,0.8,0.7,1.2,1.1c0.6,0.6,1.3,1.2,1.4,2c0,0.1,0.1,0.3,0.1,0.4C240.4-112.5,240.3-111.9,240-111.3z"/>
		<path id="Path_423" class="st10" d="M227.9-113.5c-0.2-0.6-0.5-1.1-0.9-1.5c-0.4-0.3-0.9-0.6-1.4-0.7c-0.7-0.2-1.4-0.3-2.1-0.3
			c-0.8,0-1.8,0.2-2.1,1c-0.3,0.6-0.1,1.3,0.2,1.9c0.1,0.3,0.3,0.6,0.6,0.8c0.4,0.2,0.8,0.2,1.3,0.3c0.7,0.2,1.3,0.4,1.9,0.8
			l1.5,0.9l2.5,1.5c-0.1,0,0-1.8-0.1-2C228.8-111.7,228.3-112.6,227.9-113.5z"/>
		<path id="Path_424" class="st9" d="M231.9-125.2c-0.1-0.3-0.3-0.7-0.6-0.8c0-0.4,0-0.8-0.1-1.1c-0.4-1.1-1.2-1-2-1.5
			c-0.4-0.2-0.3-0.4-0.5-0.7c-0.2-0.4-0.6-0.8-1-1c-0.5-0.3-1.1-0.7-1.7-0.7c-1.3-0.1-2.3,1.1-3.5,1.5c-0.5,0.2-1.1,0.2-1.6,0.3
			s-1.1,0.5-1.2,1.1c0,0.3,0,0.5,0,0.8c-0.1,0.5-0.5,0.9-0.8,1.3c-0.7,0.9-0.6,2.2-0.1,3.3c0.1,0.2,0.2,0.4,0.4,0.6
			c0,0.5,0.2,0.9,0.4,1.4c0.5,1,1.4,1.8,2.4,2.4c-0.1-0.3-0.1-0.7-0.1-1c0-0.1,0-0.2,0-0.3c0.1-0.2,0.4-0.3,0.6-0.4
			c0.4-0.3,0.6-0.8,0.6-1.3c0-0.5-0.1-1,0-1.5c0-0.2,0.1-0.5,0.3-0.6c0.2-0.1,0.4-0.1,0.5-0.1c0.9,0,1.9-0.1,2.7-0.5
			c0.3-0.2,0.5-0.3,0.8-0.4c0.7-0.2,1.4,0.3,1.8,0.9c0.4,0.6,0.6,1.3,0.9,1.9s1,1.1,1.7,1.1c0.1,0,0.2,0,0.2-0.1c0-0.1,0-0.1,0-0.2
			l0-2.7C232.1-124.3,232.1-124.7,231.9-125.2L231.9-125.2z"/>
		<path id="Path_425" class="st9" d="M216.4-107.3c0.1,1.1,0.2,2.1,0.2,3.2h-4.9v-4.2c0-0.1,0.1-0.2,0.1-0.3c0.3-0.9,1-1.8,1.5-2.6
			c0,0,0.1-0.1,0.1-0.1c0.2-0.3,0.4-0.7,0.6-1.1c0.1-0.2,0.2-1.1,0.4-1.2c0.6-0.3,1.1,1.1,1.1,1.4c0.3,1.2,0.5,2.3,0.7,3.5
			C216.3-108.2,216.3-107.8,216.4-107.3z"/>
		<path id="Path_426" class="st9" d="M241.4-104.1H230c-0.1-0.2-0.2-0.5-0.3-0.7c-0.7-1.6-1.6-3.1-2.7-4.5c-0.2-0.2-0.3-0.4-0.3-0.7
			c0-0.1,0-0.2,0.1-0.3c0.2-0.3,0.6-0.5,1-0.7c0.4-0.2,0.7-0.4,1-0.7c0.3-0.2,0.5-0.6,0.6-0.9c0-0.1,0.1-0.2,0.1-0.3l0.2,0.2
			c0.1,0.2,0.3,0.3,0.4,0.5c1.3,1.6,2.6,3.2,4.4,4.2c0.4,0.3,0.9,0.5,1.4,0.6c0.1,0,0.2,0,0.3,0c0.1-0.1,0.1-0.2,0.1-0.2
			c0.1-0.7,0.2-1.3,0.3-2c0.2-1.2,0.6-2.3,1.2-3.4c0.3-0.6,1.4-2.8,2-1.4c0.2,0.4,0.4,0.8,0.6,1.2c0.1,0.3,0.2,0.5,0.4,0.8
			c0.4,0.8,0.7,1.7,0.6,2.6C241.4-107.8,241.4-106,241.4-104.1z"/>
		<path id="Path_427" class="st11" d="M216.8-104.1h1l-0.6-1.8l-0.8-2.7c0,0.4,0,0.9-0.1,1.3c-0.1,0.9-0.4,1.8-0.8,2.7
			c-0.1,0.2-0.2,0.3-0.2,0.5H216.8L216.8-104.1z"/>
		<path id="Path_428" class="st11" d="M236.9-109.8c-0.1,0.4,0,0.8,0.1,1.2c0.3,1.1,0.4,2.3,0.4,3.4c0,0.1,0,0.1-0.1,0.2
			c0,0,0,0-0.1,0c-0.4,0-1,0-1.3-0.3L236.9-109.8z"/>
		<rect id="Rectangle_248" x="29.1" y="-142.6" class="st7" width="101.5" height="68.7"/>
		<rect id="Rectangle_249" x="35.5" y="-136.3" class="st8" width="30.1" height="32.8"/>
		<rect id="Rectangle_250" x="84.1" y="-136.3" class="st8" width="29" height="2"/>
		<rect id="Rectangle_251" x="35.9" y="-98.6" class="st8" width="10.3" height="2"/>
		<rect id="Rectangle_252" x="35.9" y="-95" class="st8" width="29.3" height="2"/>
		<rect id="Rectangle_253" x="77.3" y="-129.1" class="st8" width="41.8" height="2"/>
		<rect id="Rectangle_254" x="77.3" y="-123.6" class="st8" width="41.8" height="2"/>
		<rect id="Rectangle_255" x="77.3" y="-118" class="st8" width="41.8" height="2"/>
		<rect id="Rectangle_256" x="77.3" y="-112.4" class="st8" width="41.8" height="2"/>
		<rect id="Rectangle_257" x="77.3" y="-106.8" class="st8" width="41.8" height="2"/>
		<rect id="Rectangle_258" x="77.3" y="-101.3" class="st8" width="41.8" height="2"/>
		<rect id="Rectangle_259" x="77.3" y="-95.7" class="st8" width="41.8" height="2"/>
		<path id="Path_429" class="st12" d="M64.8-103.4h-3.9c-0.3-0.8-0.6-1.6-0.8-2.4c-0.2-1-0.6-1.9-1.3-2.6c-0.2-0.2-0.4-0.5-0.5-0.8
			c-0.3-0.7-0.5-1.4-0.3-2.1c0-0.2,0.1-0.4,0.1-0.6c0.2-0.8,0.5-1.5,0.7-2.3c0.1-0.3,0.4-0.5,0.7-0.6c0.3,0,0.5,0,0.8,0.1
			c0,0,0.1,0.1,0.2,0.1c0.4,0.3,0.7,0.8,0.8,1.3c0.8,2.2,1.6,4.4,2.4,6.6c0.2,0.4,0.3,0.8,0.5,1.3c0.2,0.6,0.5,1.3,0.7,1.9
			C64.7-103.5,64.8-103.5,64.8-103.4z"/>
		<path id="Path_430" class="st9" d="M48.5-132.2c-1,0.3-1.8,1.1-2,2.1c-0.1,0.5,0,0.9-0.1,1.4c-0.2,1.1-1,1.9-1.8,2.7
			s-1.6,1.7-1.7,2.8c-0.1,1.2,0.8,2.3,0.7,3.5c-0.2,1.4-1.7,2.3-2,3.7c-0.2,0.9,0,1.9,0.5,2.7c0.9,1.5,2.5,2.6,4.2,3.1
			s3.5,0.7,5.3,0.7c2.2,0,4.5-0.2,6.2-1.6c0.9-0.8,1.5-2,1.6-3.2c0.2-1.7-0.5-3.4-0.1-5c0.3-1,1.1-1.9,0.9-3c-0.1-1-1-1.7-1.6-2.6
			c-0.6-0.8-0.9-1.7-1.3-2.6l-1.2-3.1c-0.2-0.6-0.5-1.2-1-1.6c-1-0.7-2.5-0.6-3.6-0.4C50.6-132.5,49.5-132.6,48.5-132.2z"/>
		<path id="Path_431" class="st13" d="M49.4-122.1c0,0,0.1,3.4-0.2,3.8s1.4,2.6,1.4,2.6l3.1-0.1l1.6-1.3l-1.4-1.8c0,0-0.6-3-0.1-3.6
			C54.2-123.3,49.4-122.1,49.4-122.1z"/>
		<path id="Path_432" class="st11" d="M49.4-122.1c0,0,0.1,3.4-0.2,3.8s1.4,2.6,1.4,2.6l3.1-0.1l1.6-1.3l-1.4-1.8c0,0-0.6-3-0.1-3.6
			C54.2-123.3,49.4-122.1,49.4-122.1z"/>
		<circle id="Ellipse_117" class="st13" cx="51.3" cy="-124.9" r="4.1"/>
		<path id="Path_433" class="st12" d="M53.4-103.4h3.3c0.1-0.2,0.2-0.5,0.4-0.7l0,0c0.2-0.3,0.3-0.5,0.6-0.6
			c0.2-0.1,0.3-0.2,0.5-0.3c0.1-0.1,0.2-0.3,0.3-0.5c0.2-0.7,0.3-1.5,0.4-2.2c0-0.3,0-0.5,0-0.8c0-0.2,0-0.4,0.1-0.6
			c0.1-0.4,0.3-0.8,0.5-1.1c0.5-0.8,0.9-1.6,1.3-2.5c0.1-0.2,0.1-0.5,0.1-0.7c0-0.3-0.1-0.7-0.3-0.9c-0.1-0.1-0.1-0.2-0.2-0.3
			c-0.3-0.4-0.6-0.9-1-1.2c-0.8-0.8-1.7-1.4-2.8-1.9c-0.1,0-0.3-0.1-0.4-0.2c-0.1-0.1-0.3-0.3-0.3-0.4c-0.4-0.5-0.8-1.2-1.5-1.1
			c-0.2-0.1-0.5-0.1-0.7-0.1c0,0-0.1,0-0.1,0c-0.3,0.1-0.5,0.2-0.7,0.4c-0.6,0.3-1.3,0.4-1.9,0.3c-0.1,0-0.2,0-0.2-0.1
			c-0.1-0.1-0.2-0.1-0.2-0.2c-0.3-0.3-0.8-0.3-1.2-0.2c-0.2,0.1-0.3,0.2-0.5,0.3c-0.1,0.2-0.2,0.3-0.3,0.5c-0.3,0.4-0.9,0.4-1.4,0.4
			c-1,0-2.1,0.1-3.1,0.3c-0.9,0.2-1.7,0.6-2.4,1.2l0,0c-0.1,0.1-0.2,0.2-0.3,0.3c-0.2,0.2-0.4,0.4-0.5,0.7c-0.1,0.3-0.1,0.8-0.2,1.1
			c-0.1,0.4-0.4,0.7-0.6,1.1c-0.1,0.3-0.1,0.6-0.2,0.9c0,0,0,0,0,0c0.7,0.6,1.2,1.3,1.9,1.9c0.4,0.3,0.7,0.7,1,1.1
			c0,0.1,0.1,0.2,0.1,0.3c0.1,0.3,0.1,0.7,0.1,1.1c0.1,1.7,1,3.2,2,4.6c0,0,0,0.1,0.1,0.1L53.4-103.4z"/>
		<path id="Path_434" class="st12" d="M42.7-109.4c-0.2,1.1-0.3,2.2-0.5,3.2c-0.1,0.6-0.2,1.1-0.3,1.7c-0.1,0.3-0.2,0.7-0.3,1h-4.7
			c0-0.2,0-0.4,0-0.6c0.1-0.7,0.3-1.4,0.6-2c0.5-1.5,1.1-2.9,1.6-4.4c0.2-0.6,0.4-1.3,0.7-1.9c0-0.1,0.1-0.2,0.2-0.3
			c0.3-0.6,1-0.3,1.6-0.3c0.2,0,0.3,0.1,0.4,0.1c0.2,0.1,0.3,0.2,0.4,0.4c0.5,0.8,0.4,1.8,0.3,2.8C42.7-109.6,42.7-109.5,42.7-109.4
			z"/>
		<path id="Path_435" class="st9" d="M57.1-104.1c0,0,0.1,0.3,0.2,0.7h-3.9C55.3-103.8,57.1-104.1,57.1-104.1L57.1-104.1z"/>
		<ellipse id="Ellipse_118" class="st9" cx="51.6" cy="-127.3" rx="4.4" ry="2.4"/>
		<rect id="Rectangle_260" x="94.1" y="-117.3" class="st14" width="101.5" height="68.7"/>
		<ellipse id="Ellipse_119" class="st11" cx="180.8" cy="-54.5" rx="11.9" ry="1.3"/>
		<rect id="Rectangle_261" x="100.6" y="-111" class="st8" width="30.1" height="32.8"/>
		<path id="Path_436" class="st9" d="M110.2-96c0.2,0.1,0.4,0,0.5-0.2c0.4-0.7-0.3-1.5-0.2-2.3c0.1-0.6,0.8-1,1-1.6
			c0.1-0.6-0.3-1.3,0-1.8c0.2-0.4,0.8-0.5,1.3-0.4s0.9,0.3,1.4,0.3c0.6,0,1.2-0.2,1.8-0.4s1.4-0.1,1.7,0.4c0.5,0.7,0,1.6,0.2,2.4
			c0.1,0.6,0.7,1.2,0.7,1.8c0,0.2-0.6,0-0.6,0.3s-0.3,0,0,0c0.2-0.1,0.3-0.2,0.3-0.4c0-0.2,0.4-0.3,0.4-0.4c0-0.4,0.8-0.1,0.9-0.6
			c0.3-1,0.2-2.1-0.2-3c-0.2-0.4-0.4-0.8-0.5-1.2c-0.1-0.6,0.1-1.2-0.1-1.8c-0.3-0.8-1.1-1.2-1.9-1.2s-1.6,0.1-2.4-0.1
			c-0.7-0.1-1.4-0.4-2.1-0.4c-0.9,0.1-1.6,0.6-2.2,1.3s-1.1,1.4-1.8,1.9c-0.2,0.1-0.4,0.3-0.6,0.5c-0.3,0.4-0.4,1-0.3,1.6
			c0.1,0.5,0.3,1.1,0.4,1.6c0.1,0.5,0.1,1,0.1,1.6c0,0.5,0.2,1,0.4,1.5c0.3,0.3,0.7,0.6,1.1,0.6c0.2,0,0.3-0.1,0.4-0.1
			C110-96.3,110.1-96.1,110.2-96z"/>
		<path id="Path_437" class="st15" d="M103.6-78.1c0.1-1.8,0.2-3.2,0.2-3.2l0.8-2.2l2.7,5.4H103.6z"/>
		<path id="Path_438" class="st11" d="M103.6-78.1c0.1-1.8,0.2-3.2,0.2-3.2l0.8-2.2l2.7,5.4H103.6z"/>
		<path id="Path_439" class="st13" d="M109.9-95.8c0,0,2.5,6.5,1.1,7.7c-1.5,1.2,8.2-2.1,8.2-2.1l-0.2-0.8c0,0-3.2-1.2-1.6-4.8
			S109.9-95.8,109.9-95.8z"/>
		<path id="Path_440" class="st11" d="M109.9-95.8c0,0,2.5,6.5,1.1,7.7c-1.5,1.2,8.2-2.1,8.2-2.1l-0.2-0.8c0,0-3.2-1.2-1.6-4.8
			S109.9-95.8,109.9-95.8z"/>
		<circle id="Ellipse_120" class="st13" cx="113.6" cy="-98.6" r="5.4"/>
		<path id="Path_441" class="st15" d="M126.7-87c0,0,0,0.4-0.1,1.2c-0.1,1.5-0.2,4.4-0.3,7.7h-20.9c-0.6-0.7-1-1.5-1.3-2.4
			c-0.1-0.3-0.1-0.5-0.2-0.8c-0.1-2,1.7-4.9,3-5.2c1.5-0.3,4.2-3.2,4.2-3.2c0,0.2,0.2,0.4,0.3,0.5l0,0c0.2,0.1,0.5,0.2,0.7,0.2
			c0.9,0,4.9-1.8,6.2-2.4c0.3-0.1,0.4-0.2,0.4-0.2c1.5,0.6,3,1.2,4.6,1.5C124.8-89.7,126.1-88.5,126.7-87L126.7-87z"/>
		<path id="Path_442" class="st9" d="M109.3-96.5c0.2,0.1,0.4,0,0.5-0.2c0.4-0.7-0.3-1.5-0.2-2.3c0.1-0.6,0.8-1,1-1.6
			c0.1-0.6-0.3-1.3,0-1.8c0.2-0.4,0.8-0.5,1.3-0.4s0.9,0.3,1.4,0.3c0.6,0,1.2-0.2,1.8-0.4s1.4-0.1,1.7,0.4c0.5,0.7,0,1.6,0.2,2.4
			c0.1,0.6,1.6,1.1,1.7,0.7c0.3-1,0.2-2.1-0.2-3c-0.2-0.4-0.4-0.8-0.5-1.2c-0.1-0.6,0.1-1.2-0.1-1.8c-0.3-0.8-1.1-1.2-1.9-1.2
			c-0.8-0.1-1.6,0.1-2.4-0.1c-0.7-0.1-1.4-0.4-2.1-0.4c-0.9,0.1-1.6,0.6-2.2,1.3s-1.1,1.4-1.8,1.9c-0.2,0.1-0.4,0.3-0.6,0.5
			c-0.3,0.4-0.4,1-0.3,1.6s0.3,1.1,0.4,1.6c0.1,0.5,0.1,1,0.1,1.6c0,0.5,0.2,1,0.4,1.5c0.3,0.3,0.7,0.6,1.1,0.6
			c0.2,0,0.3-0.1,0.4-0.1C109.1-96.8,109.1-96.6,109.3-96.5z"/>
		<path id="Path_443" class="st11" d="M129.3-78.1h-6.1c-0.5-3.4-0.8-7-0.8-7l1.2-0.5l2.5-1.3c0,0,0.2,0.4,0.5,1.2
			C127.2-84.2,128.4-81.2,129.3-78.1z"/>
		<path id="Path_444" class="st15" d="M129.9-78.1H123c-1-3.7-2-7.8-2-7.8l2.6-1.9l3.1,0.8C126.7-87,128.5-82.7,129.9-78.1z"/>
		<rect id="Rectangle_262" x="149.1" y="-111" class="st16" width="29" height="2"/>
		<rect id="Rectangle_263" x="100.9" y="-73.3" class="st16" width="10.3" height="2"/>
		<rect id="Rectangle_264" x="100.9" y="-69.7" class="st16" width="29.3" height="2"/>
		<rect id="Rectangle_265" x="142.3" y="-103.8" class="st8" width="41.8" height="2"/>
		<rect id="Rectangle_266" x="142.3" y="-98.3" class="st8" width="41.8" height="2"/>
		<rect id="Rectangle_267" x="142.3" y="-92.7" class="st8" width="41.8" height="2"/>
		<rect id="Rectangle_268" x="142.3" y="-87.1" class="st8" width="41.8" height="2"/>
		<rect id="Rectangle_269" x="142.3" y="-81.5" class="st8" width="41.8" height="2"/>
		<rect id="Rectangle_270" x="142.3" y="-75.9" class="st8" width="41.8" height="2"/>
		<rect id="Rectangle_271" x="142.3" y="-70.4" class="st8" width="41.8" height="2"/>
		<path id="Path_445" class="st17" d="M192.1-70.1l-11.4,11.4l-4.8-4.8c-0.6-0.6-1.7-0.6-2.3,0l-0.2-0.3c-0.6,0.6-0.5,1.9,0.2,2.6
			l6.2,6.2c0.5,0.5,1.3,0.5,1.8,0l0,0l12.9-12.8c0.6-0.6,0.9-1.8,0.2-2.4l0,0C194-70.9,192.7-70.7,192.1-70.1z"/>
		<path id="Path_446" class="st11" d="M192.1-70.1l-11.4,11.4l-4.8-4.8c-0.6-0.6-1.7-0.6-2.3,0l-0.2-0.3c-0.6,0.6-0.5,1.9,0.2,2.6
			l6.2,6.2c0.5,0.5,1.3,0.5,1.8,0l0,0l12.9-12.8c0.6-0.6,0.9-1.8,0.2-2.4l0,0C194-70.9,192.7-70.7,192.1-70.1z"/>
		<path id="Path_447" class="st17" d="M192.1-70.6l-11.4,11.4l-4.8-4.8c-0.6-0.6-1.7-0.6-2.3,0l0,0l0,0c-0.6,0.6-0.6,1.7,0,2.3l0,0
			l6.2,6.2c0.5,0.5,1.3,0.5,1.8,0l0,0l12.9-12.8c0.6-0.6,0.6-1.7,0-2.3l0,0l0,0C193.8-71.3,192.7-71.3,192.1-70.6L192.1-70.6z"/>
	</g>
	<g id="Group_50" transform="translate(-93 -975)">
		<path id="Path_410" class="st16" d="M10651.2,4954.4c-3,0-3,4.7,0,4.7S10654.2,4954.4,10651.2,4954.4z"/>
		<path id="Path_411" class="st16" d="M10672.2,4939.4c-8.1-0.2-15.5,3.9-19.4,10c-1.3,2,2.4,3.8,3.6,1.8c3.3-5.1,9.4-8.3,16.1-8.1
			c7,0.2,13.4,4.2,16.7,9.7c1.3,2.1,4.6,0.2,3.4-1.9C10688.5,4944.1,10680.5,4939.5,10672.2,4939.4z"/>
		<path id="Path_565" class="st16" d="M10698,4935.8c-14.3-14.9-38.1-15.4-53-1c-0.2,0.2-0.4,0.4-0.7,0.6
			c-14.2,14.3-14.4,37.6-0.5,52.2c12.6,13.2,32.9,15.5,48,5.3l27.1,28.2c0.7,0.7,1.8,0.8,2.6,0l6.8-6.5c0.7-0.7,0.8-1.9,0-2.6
			l-27.1-28.2C10712,4969.2,10710.6,4949,10698,4935.8z M10689.6,4981.1c-10.7,10.3-27.6,9.9-37.9-0.8c-10.3-10.7-9.9-27.6,0.8-37.9
			c10.7-10.3,27.6-9.9,37.9,0.8S10700.3,4970.9,10689.6,4981.1L10689.6,4981.1z"/>
	</g>
</g>
</svg>
